// Jest Snapshot v1, https://goo.gl/fbAQLP

exports[`AddPaymentMethodForm should disable submit button if form is invalid or save request is fetching 1`] = `
<Fragment>
  <View
    style={
      Object {
        "alignSelf": "stretch",
        "paddingHorizontal": 16,
        "paddingVertical": 24,
      }
    }
  >
    <Field
      component={[Function]}
      format={[Function]}
      name="creditCardNumber"
      parse={[Function]}
      props={
        Object {
          "cardBrand": undefined,
          "cardBrandFieldName": "creditCardBrand",
          "isPrimary": false,
          "keyboardType": "numeric",
          "label": "Número do cartão de crédito",
          "onSubmitEditing": [Function],
          "reduxFormName": "addPaymentMethod",
          "returnKeyType": "next",
          "textFieldRef": [Function],
        }
      }
      validate={
        Array [
          [Function],
          [Function],
          [Function],
        ]
      }
    />
    <View
      style={
        Object {
          "flexDirection": "row",
        }
      }
    >
      <View
        style={
          Object {
            "flex": 3,
          }
        }
      >
        <Field
          component={[Function]}
          format={[Function]}
          name="creditCardExpirationDate"
          parse={[Function]}
          props={
            Object {
              "isPrimary": false,
              "keyboardType": "numeric",
              "label": "Validade",
              "maxLength": 7,
              "onSubmitEditing": [Function],
              "returnKeyType": "next",
              "textFieldRef": [Function],
            }
          }
          validate={
            Array [
              [Function],
              [Function],
            ]
          }
        />
      </View>
      <View
        style={
          Object {
            "flex": 5,
            "marginLeft": 16,
          }
        }
      >
        <Field
          component={[Function]}
          name="creditCardSecurityCode"
          props={
            Object {
              "helperText": "Últimos dígitos no verso do cartão",
              "isPrimary": false,
              "keyboardType": "numeric",
              "label": "Cód. Segurança",
              "maxLength": 4,
              "onSubmitEditing": [Function],
              "returnKeyType": "default",
              "right": [Function],
              "textFieldRef": [Function],
            }
          }
          validate={
            Array [
              [Function],
            ]
          }
        />
      </View>
    </View>
    <Field
      component={[Function]}
      format={[Function]}
      name="creditCardHolder"
      parse={[Function]}
      props={
        Object {
          "isPrimary": false,
          "label": "Nome impresso no cartão",
          "maxLength": 50,
          "onSubmitEditing": [Function],
          "textFieldRef": [Function],
        }
      }
      validate={[Function]}
    />
    <Button
      disabled={true}
      onPress={[Function]}
      style={
        Object {
          "marginTop": 24,
        }
      }
    >
      Salvar forma de pagamento
    </Button>
  </View>
  <View
    style={
      Object {
        "paddingHorizontal": 16,
      }
    }
  >
    <BrandText
      style={
        Object {
          "color": "#707070",
          "fontSize": 14,
          "lineHeight": 20,
          "textAlign": "center",
        }
      }
    >
      A validação do cartão está sujeita a cobrança e extorno imediato de até R$ 1,00.
    </BrandText>
  </View>
</Fragment>
`;

exports[`AddPaymentMethodForm should disable submit button if form is invalid or save request is fetching 2`] = `
<Fragment>
  <View
    style={
      Object {
        "alignSelf": "stretch",
        "paddingHorizontal": 16,
        "paddingVertical": 24,
      }
    }
  >
    <Field
      component={[Function]}
      format={[Function]}
      name="creditCardNumber"
      parse={[Function]}
      props={
        Object {
          "cardBrand": undefined,
          "cardBrandFieldName": "creditCardBrand",
          "isPrimary": false,
          "keyboardType": "numeric",
          "label": "Número do cartão de crédito",
          "onSubmitEditing": [Function],
          "reduxFormName": "addPaymentMethod",
          "returnKeyType": "next",
          "textFieldRef": [Function],
        }
      }
      validate={
        Array [
          [Function],
          [Function],
          [Function],
        ]
      }
    />
    <View
      style={
        Object {
          "flexDirection": "row",
        }
      }
    >
      <View
        style={
          Object {
            "flex": 3,
          }
        }
      >
        <Field
          component={[Function]}
          format={[Function]}
          name="creditCardExpirationDate"
          parse={[Function]}
          props={
            Object {
              "isPrimary": false,
              "keyboardType": "numeric",
              "label": "Validade",
              "maxLength": 7,
              "onSubmitEditing": [Function],
              "returnKeyType": "next",
              "textFieldRef": [Function],
            }
          }
          validate={
            Array [
              [Function],
              [Function],
            ]
          }
        />
      </View>
      <View
        style={
          Object {
            "flex": 5,
            "marginLeft": 16,
          }
        }
      >
        <Field
          component={[Function]}
          name="creditCardSecurityCode"
          props={
            Object {
              "helperText": "Últimos dígitos no verso do cartão",
              "isPrimary": false,
              "keyboardType": "numeric",
              "label": "Cód. Segurança",
              "maxLength": 4,
              "onSubmitEditing": [Function],
              "returnKeyType": "default",
              "right": [Function],
              "textFieldRef": [Function],
            }
          }
          validate={
            Array [
              [Function],
            ]
          }
        />
      </View>
    </View>
    <Field
      component={[Function]}
      format={[Function]}
      name="creditCardHolder"
      parse={[Function]}
      props={
        Object {
          "isPrimary": false,
          "label": "Nome impresso no cartão",
          "maxLength": 50,
          "onSubmitEditing": [Function],
          "textFieldRef": [Function],
        }
      }
      validate={[Function]}
    />
    <Button
      disabled={true}
      onPress={[Function]}
      style={
        Object {
          "marginTop": 24,
        }
      }
    >
      Salvar forma de pagamento
    </Button>
  </View>
  <View
    style={
      Object {
        "paddingHorizontal": 16,
      }
    }
  >
    <BrandText
      style={
        Object {
          "color": "#707070",
          "fontSize": 14,
          "lineHeight": 20,
          "textAlign": "center",
        }
      }
    >
      A validação do cartão está sujeita a cobrança e extorno imediato de até R$ 1,00.
    </BrandText>
  </View>
</Fragment>
`;

exports[`AddPaymentMethodForm should render a message box if save request returned a error 1`] = `
<Fragment>
  <View
    style={
      Object {
        "alignSelf": "stretch",
        "paddingHorizontal": 16,
        "paddingVertical": 24,
      }
    }
  >
    <Field
      component={[Function]}
      format={[Function]}
      name="creditCardNumber"
      parse={[Function]}
      props={
        Object {
          "cardBrand": undefined,
          "cardBrandFieldName": "creditCardBrand",
          "isPrimary": false,
          "keyboardType": "numeric",
          "label": "Número do cartão de crédito",
          "onSubmitEditing": [Function],
          "reduxFormName": "addPaymentMethod",
          "returnKeyType": "next",
          "textFieldRef": [Function],
        }
      }
      validate={
        Array [
          [Function],
          [Function],
          [Function],
        ]
      }
    />
    <View
      style={
        Object {
          "flexDirection": "row",
        }
      }
    >
      <View
        style={
          Object {
            "flex": 3,
          }
        }
      >
        <Field
          component={[Function]}
          format={[Function]}
          name="creditCardExpirationDate"
          parse={[Function]}
          props={
            Object {
              "isPrimary": false,
              "keyboardType": "numeric",
              "label": "Validade",
              "maxLength": 7,
              "onSubmitEditing": [Function],
              "returnKeyType": "next",
              "textFieldRef": [Function],
            }
          }
          validate={
            Array [
              [Function],
              [Function],
            ]
          }
        />
      </View>
      <View
        style={
          Object {
            "flex": 5,
            "marginLeft": 16,
          }
        }
      >
        <Field
          component={[Function]}
          name="creditCardSecurityCode"
          props={
            Object {
              "helperText": "Últimos dígitos no verso do cartão",
              "isPrimary": false,
              "keyboardType": "numeric",
              "label": "Cód. Segurança",
              "maxLength": 4,
              "onSubmitEditing": [Function],
              "returnKeyType": "default",
              "right": [Function],
              "textFieldRef": [Function],
            }
          }
          validate={
            Array [
              [Function],
            ]
          }
        />
      </View>
    </View>
    <Field
      component={[Function]}
      format={[Function]}
      name="creditCardHolder"
      parse={[Function]}
      props={
        Object {
          "isPrimary": false,
          "label": "Nome impresso no cartão",
          "maxLength": 50,
          "onSubmitEditing": [Function],
          "textFieldRef": [Function],
        }
      }
      validate={[Function]}
    />
    <MessageBox
      message="Test error"
      style={
        Object {
          "marginTop": 16,
        }
      }
    />
    <Button
      onPress={[Function]}
      style={
        Object {
          "marginTop": 24,
        }
      }
    >
      Salvar forma de pagamento
    </Button>
  </View>
  <View
    style={
      Object {
        "paddingHorizontal": 16,
      }
    }
  >
    <BrandText
      style={
        Object {
          "color": "#707070",
          "fontSize": 14,
          "lineHeight": 20,
          "textAlign": "center",
        }
      }
    >
      A validação do cartão está sujeita a cobrança e extorno imediato de até R$ 1,00.
    </BrandText>
  </View>
</Fragment>
`;

exports[`AddPaymentMethodForm should render the correct fields and ghost transaction message if it isn't purchase flow 1`] = `
<Fragment>
  <View
    style={
      Object {
        "alignSelf": "stretch",
        "paddingHorizontal": 16,
        "paddingVertical": 24,
      }
    }
  >
    <Field
      component={[Function]}
      format={[Function]}
      name="creditCardNumber"
      parse={[Function]}
      props={
        Object {
          "cardBrand": undefined,
          "cardBrandFieldName": "creditCardBrand",
          "isPrimary": false,
          "keyboardType": "numeric",
          "label": "Número do cartão de crédito",
          "onSubmitEditing": [Function],
          "reduxFormName": "addPaymentMethod",
          "returnKeyType": "next",
          "textFieldRef": [Function],
        }
      }
      validate={
        Array [
          [Function],
          [Function],
          [Function],
        ]
      }
    />
    <View
      style={
        Object {
          "flexDirection": "row",
        }
      }
    >
      <View
        style={
          Object {
            "flex": 3,
          }
        }
      >
        <Field
          component={[Function]}
          format={[Function]}
          name="creditCardExpirationDate"
          parse={[Function]}
          props={
            Object {
              "isPrimary": false,
              "keyboardType": "numeric",
              "label": "Validade",
              "maxLength": 7,
              "onSubmitEditing": [Function],
              "returnKeyType": "next",
              "textFieldRef": [Function],
            }
          }
          validate={
            Array [
              [Function],
              [Function],
            ]
          }
        />
      </View>
      <View
        style={
          Object {
            "flex": 5,
            "marginLeft": 16,
          }
        }
      >
        <Field
          component={[Function]}
          name="creditCardSecurityCode"
          props={
            Object {
              "helperText": "Últimos dígitos no verso do cartão",
              "isPrimary": false,
              "keyboardType": "numeric",
              "label": "Cód. Segurança",
              "maxLength": 4,
              "onSubmitEditing": [Function],
              "returnKeyType": "next",
              "right": [Function],
              "textFieldRef": [Function],
            }
          }
          validate={
            Array [
              [Function],
            ]
          }
        />
      </View>
    </View>
    <Field
      component={[Function]}
      format={[Function]}
      name="creditCardHolder"
      parse={[Function]}
      props={
        Object {
          "isPrimary": false,
          "label": "Nome impresso no cartão",
          "maxLength": 50,
          "onSubmitEditing": [Function],
          "textFieldRef": [Function],
        }
      }
      validate={[Function]}
    />
    <Button
      onPress={[Function]}
      style={
        Object {
          "marginTop": 24,
        }
      }
    >
      Salvar forma de pagamento
    </Button>
  </View>
  <View
    style={
      Object {
        "paddingHorizontal": 16,
      }
    }
  >
    <BrandText
      style={
        Object {
          "color": "#707070",
          "fontSize": 14,
          "lineHeight": 20,
          "textAlign": "center",
        }
      }
    >
      A validação do cartão está sujeita a cobrança e extorno imediato de até R$ 1,00.
    </BrandText>
  </View>
</Fragment>
`;

exports[`AddPaymentMethodForm should render the correct fields if save card checked and it's purchase flow 1`] = `
<Fragment>
  <View
    style={
      Object {
        "alignSelf": "stretch",
        "paddingHorizontal": 16,
        "paddingVertical": 24,
      }
    }
  >
    <Field
      component={[Function]}
      format={[Function]}
      name="creditCardNumber"
      parse={[Function]}
      props={
        Object {
          "cardBrand": undefined,
          "cardBrandFieldName": "creditCardBrand",
          "isPrimary": false,
          "keyboardType": "numeric",
          "label": "Número do cartão de crédito",
          "onSubmitEditing": [Function],
          "reduxFormName": "addPaymentMethod",
          "returnKeyType": "next",
          "textFieldRef": [Function],
        }
      }
      validate={
        Array [
          [Function],
          [Function],
          [Function],
        ]
      }
    />
    <View
      style={
        Object {
          "flexDirection": "row",
        }
      }
    >
      <View
        style={
          Object {
            "flex": 3,
          }
        }
      >
        <Field
          component={[Function]}
          format={[Function]}
          name="creditCardExpirationDate"
          parse={[Function]}
          props={
            Object {
              "isPrimary": false,
              "keyboardType": "numeric",
              "label": "Validade",
              "maxLength": 7,
              "onSubmitEditing": [Function],
              "returnKeyType": "next",
              "textFieldRef": [Function],
            }
          }
          validate={
            Array [
              [Function],
              [Function],
            ]
          }
        />
      </View>
      <View
        style={
          Object {
            "flex": 5,
            "marginLeft": 16,
          }
        }
      >
        <Field
          component={[Function]}
          name="creditCardSecurityCode"
          props={
            Object {
              "helperText": "Últimos dígitos no verso do cartão",
              "isPrimary": false,
              "keyboardType": "numeric",
              "label": "Cód. Segurança",
              "maxLength": 4,
              "onSubmitEditing": [Function],
              "returnKeyType": "next",
              "right": [Function],
              "textFieldRef": [Function],
            }
          }
          validate={
            Array [
              [Function],
            ]
          }
        />
      </View>
    </View>
    <Field
      component={[Function]}
      format={[Function]}
      name="creditCardHolder"
      parse={[Function]}
      props={
        Object {
          "isPrimary": false,
          "label": "Nome impresso no cartão",
          "maxLength": 50,
          "onSubmitEditing": [Function],
          "textFieldRef": [Function],
        }
      }
      validate={[Function]}
    />
    <Field
      component={[Function]}
      name="saveCreditCard"
      props={
        Object {
          "style": Object {
            "marginTop": 24,
          },
          "text": "Salvar seu cartão de crédito para facilitar pagamentos futuros",
        }
      }
    />
    <Button
      onPress={[Function]}
      style={
        Object {
          "marginTop": 24,
        }
      }
    >
      Usar este cartão
    </Button>
  </View>
</Fragment>
`;

exports[`AddPaymentMethodForm should render the correct fields if save card unchecked and it's purchase flow 1`] = `
<Fragment>
  <View
    style={
      Object {
        "alignSelf": "stretch",
        "paddingHorizontal": 16,
        "paddingVertical": 24,
      }
    }
  >
    <Field
      component={[Function]}
      format={[Function]}
      name="creditCardNumber"
      parse={[Function]}
      props={
        Object {
          "cardBrand": undefined,
          "cardBrandFieldName": "creditCardBrand",
          "isPrimary": false,
          "keyboardType": "numeric",
          "label": "Número do cartão de crédito",
          "onSubmitEditing": [Function],
          "reduxFormName": "addPaymentMethod",
          "returnKeyType": "next",
          "textFieldRef": [Function],
        }
      }
      validate={
        Array [
          [Function],
          [Function],
          [Function],
        ]
      }
    />
    <View
      style={
        Object {
          "flexDirection": "row",
        }
      }
    >
      <View
        style={
          Object {
            "flex": 3,
          }
        }
      >
        <Field
          component={[Function]}
          format={[Function]}
          name="creditCardExpirationDate"
          parse={[Function]}
          props={
            Object {
              "isPrimary": false,
              "keyboardType": "numeric",
              "label": "Validade",
              "maxLength": 7,
              "onSubmitEditing": [Function],
              "returnKeyType": "next",
              "textFieldRef": [Function],
            }
          }
          validate={
            Array [
              [Function],
              [Function],
            ]
          }
        />
      </View>
      <View
        style={
          Object {
            "flex": 5,
            "marginLeft": 16,
          }
        }
      >
        <Field
          component={[Function]}
          name="creditCardSecurityCode"
          props={
            Object {
              "helperText": "Últimos dígitos no verso do cartão",
              "isPrimary": false,
              "keyboardType": "numeric",
              "label": "Cód. Segurança",
              "maxLength": 4,
              "onSubmitEditing": [Function],
              "returnKeyType": "default",
              "right": [Function],
              "textFieldRef": [Function],
            }
          }
          validate={
            Array [
              [Function],
            ]
          }
        />
      </View>
    </View>
    <Field
      component={[Function]}
      format={[Function]}
      name="creditCardHolder"
      parse={[Function]}
      props={
        Object {
          "isPrimary": false,
          "label": "Nome impresso no cartão",
          "maxLength": 50,
          "onSubmitEditing": [Function],
          "textFieldRef": [Function],
        }
      }
      validate={[Function]}
    />
    <Field
      component={[Function]}
      name="saveCreditCard"
      props={
        Object {
          "style": Object {
            "marginTop": 24,
          },
          "text": "Salvar seu cartão de crédito para facilitar pagamentos futuros",
        }
      }
    />
    <Button
      onPress={[Function]}
      style={
        Object {
          "marginTop": 24,
        }
      }
    >
      Usar este cartão
    </Button>
  </View>
</Fragment>
`;
